{
    "info": {
        "count": 31,
        "pages": 2,
        "next": "https://rickandmortyapi.com/api/location/?page=2&dimension=unknown",
        "prev": null
    },
    "results": [
        {
            "id": 2,
            "name": "Abadango",
            "type": "Cluster",
            "dimension": "unknown",
            "residents": [
                "https://rickandmortyapi.com/api/character/6"
            ],
            "url": "https://rickandmortyapi.com/api/location/2",
            "created": "2017-11-10T13:06:38.182Z"
        },
        {
            "id": 3,
            "name": "Citadel of Ricks",
            "type": "Space station",
            "dimension": "unknown",
            "residents": [
                "https://rickandmortyapi.com/api/character/8",
                "https://rickandmortyapi.com/api/character/14",
                "https://rickandmortyapi.com/api/character/15",
                "https://rickandmortyapi.com/api/character/18",
                "https://rickandmortyapi.com/api/character/21",
                "https://rickandmortyapi.com/api/character/22",
                "https://rickandmortyapi.com/api/character/27",
                "https://rickandmortyapi.com/api/character/42",
                "https://rickandmortyapi.com/api/character/43",
                "https://rickandmortyapi.com/api/character/44",
                "https://rickandmortyapi.com/api/character/48",
                "https://rickandmortyapi.com/api/character/53",
                "https://rickandmortyapi.com/api/character/56",
                "https://rickandmortyapi.com/api/character/61",
                "https://rickandmortyapi.com/api/character/69",
                "https://rickandmortyapi.com/api/character/72",
                "https://rickandmortyapi.com/api/character/73",
                "https://rickandmortyapi.com/api/character/74",
                "https://rickandmortyapi.com/api/character/77",
                "https://rickandmortyapi.com/api/character/78",
                "https://rickandmortyapi.com/api/character/85",
                "https://rickandmortyapi.com/api/character/86",
                "https://rickandmortyapi.com/api/character/95",
                "https://rickandmortyapi.com/api/character/118",
                "https://rickandmortyapi.com/api/character/119",
                "https://rickandmortyapi.com/api/character/123",
                "https://rickandmortyapi.com/api/character/135",
                "https://rickandmortyapi.com/api/character/143",
                "https://rickandmortyapi.com/api/character/152",
                "https://rickandmortyapi.com/api/character/164",
                "https://rickandmortyapi.com/api/character/165",
                "https://rickandmortyapi.com/api/character/187",
                "https://rickandmortyapi.com/api/character/200",
                "https://rickandmortyapi.com/api/character/206",
                "https://rickandmortyapi.com/api/character/209",
                "https://rickandmortyapi.com/api/character/215",
                "https://rickandmortyapi.com/api/character/220",
                "https://rickandmortyapi.com/api/character/229",
                "https://rickandmortyapi.com/api/character/231",
                "https://rickandmortyapi.com/api/character/235",
                "https://rickandmortyapi.com/api/character/267",
                "https://rickandmortyapi.com/api/character/274",
                "https://rickandmortyapi.com/api/character/278",
                "https://rickandmortyapi.com/api/character/281",
                "https://rickandmortyapi.com/api/character/283",
                "https://rickandmortyapi.com/api/character/284",
                "https://rickandmortyapi.com/api/character/285",
                "https://rickandmortyapi.com/api/character/286",
                "https://rickandmortyapi.com/api/character/287",
                "https://rickandmortyapi.com/api/character/288",
                "https://rickandmortyapi.com/api/character/289",
                "https://rickandmortyapi.com/api/character/291",
                "https://rickandmortyapi.com/api/character/294",
                "https://rickandmortyapi.com/api/character/295",
                "https://rickandmortyapi.com/api/character/298",
                "https://rickandmortyapi.com/api/character/299",
                "https://rickandmortyapi.com/api/character/322",
                "https://rickandmortyapi.com/api/character/325",
                "https://rickandmortyapi.com/api/character/328",
                "https://rickandmortyapi.com/api/character/330",
                "https://rickandmortyapi.com/api/character/345",
                "https://rickandmortyapi.com/api/character/359",
                "https://rickandmortyapi.com/api/character/366",
                "https://rickandmortyapi.com/api/character/378",
                "https://rickandmortyapi.com/api/character/385",
                "https://rickandmortyapi.com/api/character/389",
                "https://rickandmortyapi.com/api/character/392",
                "https://rickandmortyapi.com/api/character/461",
                "https://rickandmortyapi.com/api/character/462",
                "https://rickandmortyapi.com/api/character/463",
                "https://rickandmortyapi.com/api/character/464",
                "https://rickandmortyapi.com/api/character/465",
                "https://rickandmortyapi.com/api/character/466",
                "https://rickandmortyapi.com/api/character/472",
                "https://rickandmortyapi.com/api/character/473",
                "https://rickandmortyapi.com/api/character/474",
                "https://rickandmortyapi.com/api/character/475",
                "https://rickandmortyapi.com/api/character/476",
                "https://rickandmortyapi.com/api/character/477",
                "https://rickandmortyapi.com/api/character/478",
                "https://rickandmortyapi.com/api/character/479",
                "https://rickandmortyapi.com/api/character/480",
                "https://rickandmortyapi.com/api/character/481",
                "https://rickandmortyapi.com/api/character/482",
                "https://rickandmortyapi.com/api/character/483",
                "https://rickandmortyapi.com/api/character/484",
                "https://rickandmortyapi.com/api/character/485",
                "https://rickandmortyapi.com/api/character/486",
                "https://rickandmortyapi.com/api/character/487",
                "https://rickandmortyapi.com/api/character/488",
                "https://rickandmortyapi.com/api/character/489"
            ],
            "url": "https://rickandmortyapi.com/api/location/3",
            "created": "2017-11-10T13:08:13.191Z"
        },
        {
            "id": 4,
            "name": "Worldender's lair",
            "type": "Planet",
            "dimension": "unknown",
            "residents": [
                "https://rickandmortyapi.com/api/character/10",
                "https://rickandmortyapi.com/api/character/81",
                "https://rickandmortyapi.com/api/character/208",
                "https://rickandmortyapi.com/api/character/226",
                "https://rickandmortyapi.com/api/character/340",
                "https://rickandmortyapi.com/api/character/362",
                "https://rickandmortyapi.com/api/character/375",
                "https://rickandmortyapi.com/api/character/382",
                "https://rickandmortyapi.com/api/character/395"
            ],
            "url": "https://rickandmortyapi.com/api/location/4",
            "created": "2017-11-10T13:08:20.569Z"
        },
        {
            "id": 6,
            "name": "Interdimensional Cable",
            "type": "TV",
            "dimension": "unknown",
            "residents": [
                "https://rickandmortyapi.com/api/character/20",
                "https://rickandmortyapi.com/api/character/28",
                "https://rickandmortyapi.com/api/character/29",
                "https://rickandmortyapi.com/api/character/34",
                "https://rickandmortyapi.com/api/character/49",
                "https://rickandmortyapi.com/api/character/51",
                "https://rickandmortyapi.com/api/character/54",
                "https://rickandmortyapi.com/api/character/121",
                "https://rickandmortyapi.com/api/character/126",
                "https://rickandmortyapi.com/api/character/129",
                "https://rickandmortyapi.com/api/character/134",
                "https://rickandmortyapi.com/api/character/136",
                "https://rickandmortyapi.com/api/character/145",
                "https://rickandmortyapi.com/api/character/157",
                "https://rickandmortyapi.com/api/character/173",
                "https://rickandmortyapi.com/api/character/184",
                "https://rickandmortyapi.com/api/character/205",
                "https://rickandmortyapi.com/api/character/207",
                "https://rickandmortyapi.com/api/character/214",
                "https://rickandmortyapi.com/api/character/222",
                "https://rickandmortyapi.com/api/character/223",
                "https://rickandmortyapi.com/api/character/224",
                "https://rickandmortyapi.com/api/character/225",
                "https://rickandmortyapi.com/api/character/250",
                "https://rickandmortyapi.com/api/character/254",
                "https://rickandmortyapi.com/api/character/260",
                "https://rickandmortyapi.com/api/character/264",
                "https://rickandmortyapi.com/api/character/266",
                "https://rickandmortyapi.com/api/character/275",
                "https://rickandmortyapi.com/api/character/277",
                "https://rickandmortyapi.com/api/character/279",
                "https://rickandmortyapi.com/api/character/312",
                "https://rickandmortyapi.com/api/character/314",
                "https://rickandmortyapi.com/api/character/315",
                "https://rickandmortyapi.com/api/character/316",
                "https://rickandmortyapi.com/api/character/317",
                "https://rickandmortyapi.com/api/character/318",
                "https://rickandmortyapi.com/api/character/334",
                "https://rickandmortyapi.com/api/character/351",
                "https://rickandmortyapi.com/api/character/358",
                "https://rickandmortyapi.com/api/character/367",
                "https://rickandmortyapi.com/api/character/370",
                "https://rickandmortyapi.com/api/character/373",
                "https://rickandmortyapi.com/api/character/403",
                "https://rickandmortyapi.com/api/character/406",
                "https://rickandmortyapi.com/api/character/407",
                "https://rickandmortyapi.com/api/character/408",
                "https://rickandmortyapi.com/api/character/409",
                "https://rickandmortyapi.com/api/character/410",
                "https://rickandmortyapi.com/api/character/411",
                "https://rickandmortyapi.com/api/character/412",
                "https://rickandmortyapi.com/api/character/413",
                "https://rickandmortyapi.com/api/character/414",
                "https://rickandmortyapi.com/api/character/415",
                "https://rickandmortyapi.com/api/character/416",
                "https://rickandmortyapi.com/api/character/417",
                "https://rickandmortyapi.com/api/character/418",
                "https://rickandmortyapi.com/api/character/457",
                "https://rickandmortyapi.com/api/character/458",
                "https://rickandmortyapi.com/api/character/459"
            ],
            "url": "https://rickandmortyapi.com/api/location/6",
            "created": "2017-11-10T13:09:09.102Z"
        },
        {
            "id": 7,
            "name": "Immortality Field Resort",
            "type": "Resort",
            "dimension": "unknown",
            "residents": [
                "https://rickandmortyapi.com/api/character/23",
                "https://rickandmortyapi.com/api/character/204",
                "https://rickandmortyapi.com/api/character/320"
            ],
            "url": "https://rickandmortyapi.com/api/location/7",
            "created": "2017-11-10T13:09:17.136Z"
        },
        {
            "id": 10,
            "name": "Venzenulon 7",
            "type": "Planet",
            "dimension": "unknown",
            "residents": [
                "https://rickandmortyapi.com/api/character/33"
            ],
            "url": "https://rickandmortyapi.com/api/location/10",
            "created": "2017-11-18T11:21:51.643Z"
        },
        {
            "id": 11,
            "name": "Bepis 9",
            "type": "Planet",
            "dimension": "unknown",
            "residents": [
                "https://rickandmortyapi.com/api/character/35"
            ],
            "url": "https://rickandmortyapi.com/api/location/11",
            "created": "2017-11-18T11:26:03.325Z"
        },
        {
            "id": 13,
            "name": "Nuptia 4",
            "type": "Planet",
            "dimension": "unknown",
            "residents": [
                "https://rickandmortyapi.com/api/character/40",
                "https://rickandmortyapi.com/api/character/55",
                "https://rickandmortyapi.com/api/character/131",
                "https://rickandmortyapi.com/api/character/132",
                "https://rickandmortyapi.com/api/character/146",
                "https://rickandmortyapi.com/api/character/148",
                "https://rickandmortyapi.com/api/character/163",
                "https://rickandmortyapi.com/api/character/178",
                "https://rickandmortyapi.com/api/character/310",
                "https://rickandmortyapi.com/api/character/386",
                "https://rickandmortyapi.com/api/character/387"
            ],
            "url": "https://rickandmortyapi.com/api/location/13",
            "created": "2017-11-18T11:30:29.780Z"
        },
        {
            "id": 15,
            "name": "Bird World",
            "type": "Planet",
            "dimension": "unknown",
            "residents": [],
            "url": "https://rickandmortyapi.com/api/location/15",
            "created": "2017-11-18T11:32:26.752Z"
        },
        {
            "id": 16,
            "name": "St. Gloopy Noops Hospital",
            "type": "Space station",
            "dimension": "unknown",
            "residents": [
                "https://rickandmortyapi.com/api/character/105",
                "https://rickandmortyapi.com/api/character/263",
                "https://rickandmortyapi.com/api/character/321",
                "https://rickandmortyapi.com/api/character/383",
                "https://rickandmortyapi.com/api/character/384",
                "https://rickandmortyapi.com/api/character/454",
                "https://rickandmortyapi.com/api/character/455",
                "https://rickandmortyapi.com/api/character/456",
                "https://rickandmortyapi.com/api/character/460"
            ],
            "url": "https://rickandmortyapi.com/api/location/16",
            "created": "2017-11-18T11:43:20.075Z"
        },
        {
            "id": 25,
            "name": "The Menagerie",
            "type": "Menagerie",
            "dimension": "unknown",
            "residents": [
                "https://rickandmortyapi.com/api/character/67",
                "https://rickandmortyapi.com/api/character/490",
                "https://rickandmortyapi.com/api/character/491"
            ],
            "url": "https://rickandmortyapi.com/api/location/25",
            "created": "2017-11-30T11:13:46.697Z"
        },
        {
            "id": 27,
            "name": "Hideout Planet",
            "type": "Planet",
            "dimension": "unknown",
            "residents": [
                "https://rickandmortyapi.com/api/character/79",
                "https://rickandmortyapi.com/api/character/84"
            ],
            "url": "https://rickandmortyapi.com/api/location/27",
            "created": "2017-11-30T14:18:16.869Z"
        },
        {
            "id": 30,
            "name": "Earth (Unknown dimension)",
            "type": "Planet",
            "dimension": "unknown",
            "residents": [
                "https://rickandmortyapi.com/api/character/94"
            ],
            "url": "https://rickandmortyapi.com/api/location/30",
            "created": "2017-12-01T11:49:43.923Z"
        },
        {
            "id": 36,
            "name": "Glaagablaaga",
            "type": "Planet",
            "dimension": "unknown",
            "residents": [],
            "url": "https://rickandmortyapi.com/api/location/36",
            "created": "2017-12-26T20:30:45.939Z"
        },
        {
            "id": 37,
            "name": "Resort Planet",
            "type": "Planet",
            "dimension": "unknown",
            "residents": [
                "https://rickandmortyapi.com/api/character/142",
                "https://rickandmortyapi.com/api/character/296",
                "https://rickandmortyapi.com/api/character/297",
                "https://rickandmortyapi.com/api/character/319",
                "https://rickandmortyapi.com/api/character/369"
            ],
            "url": "https://rickandmortyapi.com/api/location/37",
            "created": "2017-12-27T20:02:59.005Z"
        },
        {
            "id": 38,
            "name": "Interdimensional Customs",
            "type": "Customs",
            "dimension": "unknown",
            "residents": [
                "https://rickandmortyapi.com/api/character/144",
                "https://rickandmortyapi.com/api/character/158"
            ],
            "url": "https://rickandmortyapi.com/api/location/38",
            "created": "2017-12-29T10:37:48.281Z"
        },
        {
            "id": 39,
            "name": "Galactic Federation Prison",
            "type": "Space station",
            "dimension": "unknown",
            "residents": [
                "https://rickandmortyapi.com/api/character/150"
            ],
            "url": "https://rickandmortyapi.com/api/location/39",
            "created": "2017-12-29T12:02:33.513Z"
        },
        {
            "id": 40,
            "name": "Gazorpazorp",
            "type": "Planet",
            "dimension": "unknown",
            "residents": [
                "https://rickandmortyapi.com/api/character/168",
                "https://rickandmortyapi.com/api/character/211",
                "https://rickandmortyapi.com/api/character/376"
            ],
            "url": "https://rickandmortyapi.com/api/location/40",
            "created": "2017-12-29T12:31:50.313Z"
        },
        {
            "id": 41,
            "name": "Hamster in Butt World",
            "type": "Planet",
            "dimension": "unknown",
            "residents": [
                "https://rickandmortyapi.com/api/character/153"
            ],
            "url": "https://rickandmortyapi.com/api/location/41",
            "created": "2017-12-29T15:27:54.209Z"
        },
        {
            "id": 44,
            "name": "Jerryboree",
            "type": "Daycare",
            "dimension": "unknown",
            "residents": [
                "https://rickandmortyapi.com/api/character/174",
                "https://rickandmortyapi.com/api/character/257",
                "https://rickandmortyapi.com/api/character/441",
                "https://rickandmortyapi.com/api/character/442",
                "https://rickandmortyapi.com/api/character/443",
                "https://rickandmortyapi.com/api/character/444",
                "https://rickandmortyapi.com/api/character/445",
                "https://rickandmortyapi.com/api/character/446"
            ],
            "url": "https://rickandmortyapi.com/api/location/44",
            "created": "2017-12-29T17:50:19.947Z"
        }
    ]
}